The Mental Health Project Report
…
For this project, we used the complete dataset of the 500 Cities project 2019 release. It contains information recorded from 2016-2017. We filtered the original dataset so that it includes data for New York state only. The filtered dataset was named as ny_local, it was saved as a csv file and uploaded to the project repository on Github.

The ny_local dataset contains 24 columns and 70133 rows. There were 141486 missing values in the dataset. Majority of these NAs were not in the main variables of interest. Thus, we decided to keep those values for plots and remove them for statistical analysis.

Besides the main dataset, we included two more datasets related to the impacts of COVID-19 on mental health. Those two datasets can be accessed through Indicators of Anxiety or Depression COVID-19 and Mental Health Care COVID-19. The indicators of Anxiety or Depression dataset was named as covid_symptom_df and the Mental Health Care dataset was named as mental_care_df.

The covid_symptom_df contains 13 columns and 54 rows. The mental_care_df contains 14 columns and 24 rows. There were 24 missing values in the dataset. Since the missing values were not in the variables of interest, we decided to keep them.

All datasets used for this project can be downloaded at Github project repo, in the data folder.

ny_local %>% 
  filter

## # A tibble: 70,133 x 24
##     year state_abbr state_desc city_name geographic_level data_source category
##    <dbl> <chr>      <chr>      <chr>     <chr>            <chr>       <chr>   
##  1  2016 NY         New York   Buffalo   Census Tract     BRFSS       Unhealt…
##  2  2017 NY         New York   New York  Census Tract     BRFSS       Health …
##  3  2017 NY         New York   New Roch… Census Tract     BRFSS       Health …
##  4  2017 NY         New York   New York  Census Tract     BRFSS       Prevent…
##  5  2017 NY         New York   New York  Census Tract     BRFSS       Prevent…
##  6  2017 NY         New York   New York  Census Tract     BRFSS       Unhealt…
##  7  2017 NY         New York   Buffalo   Census Tract     BRFSS       Prevent…
##  8  2017 NY         New York   Buffalo   Census Tract     BRFSS       Unhealt…
##  9  2017 NY         New York   New York  Census Tract     BRFSS       Unhealt…
## 10  2016 NY         New York   Mount Ve… Census Tract     BRFSS       Prevent…
## # … with 70,123 more rows, and 17 more variables: unique_id <chr>,
## #   measure <chr>, data_value_unit <chr>, data_value_type_id <chr>,
## #   data_value_type <chr>, data_value <dbl>, low_confidence_limit <dbl>,
## #   high_confidence_limit <dbl>, data_value_footnote_symbol <chr>,
## #   data_value_footnote <chr>, population_count <dbl>, geo_location <chr>,
## #   category_id <chr>, measure_id <chr>, city_fips <dbl>, tract_fips <dbl>,
## #   short_question_text <chr>
…
